<?xml version="1.0" encoding="UTF-8" standalone="no"?>
<!DOCTYPE svg PUBLIC "-//W3C//DTD SVG 1.1//EN" "http://www.w3.org/Graphics/SVG/1.1/DTD/svg11.dtd">
<svg version="1.1" id="Layer_1" xmlns="http://www.w3.org/2000/svg" xmlns:xlink="http://www.w3.org/1999/xlink" x="0px" y="0px" width="8px" height="13px" viewBox="0 0 8 13" enable-background="new 0 0 8 13" xml:space="preserve">  <image id="image0" width="8" height="13" x="0" y="0"
    href="data:image/png;base64,iVBORw0KGgoAAAANSUhEUgAAAAgAAAANCAMAAACjHN8KAAAABGdBTUEAALGPC/xhBQAAACBjSFJN
AAB6JgAAgIQAAPoAAACA6AAAdTAAAOpgAAA6mAAAF3CculE8AAAAPFBMVEUAAAA+T2r///84Umg1
T2ZNZmY1TmY5VWg5T2U2T2U7Tmw3WW81T2Y2TmY1T2c1T2Y1T2c2T2Y9Umb///9PH0eoAAAAE3RS
TlMAHQE7zgrNGzrMGhfik4uUlYUZzK3EZwAAAAFiS0dEAmYLfGQAAAAHdElNRQfjCh8ACAtBxc9k
AAAAMUlEQVQI12NgAANGJgjNzMIKodnYwTQHjObkQqG5eSA0AwMvHwMGix+TxSQAZwkKAQA7+wFB
8zxNqwAAAERlWElmTU0AKgAAAAgAAYdpAAQAAAABAAAAGgAAAAAAA6ABAAMAAAABAAEAAKACAAQA
AAABAAAACKADAAQAAAABAAAADQAAAABdZPQiAAAAJXRFWHRkYXRlOmNyZWF0ZQAyMDE5LTEwLTMx
VDA3OjA4OjExLTA3OjAwA3B6fgAAACV0RVh0ZGF0ZTptb2RpZnkAMjAxOS0xMC0zMVQwNzowODox
MS0wNzowMHItwsIAAAARdEVYdGV4aWY6Q29sb3JTcGFjZQAxD5sCSQAAABd0RVh0ZXhpZjpFeGlm
SW1hZ2VMZW5ndGgAMTMhw124AAAAFXRFWHRleGlmOkV4aWZJbWFnZVdpZHRoADhBwxjlAAAAEnRF
WHRleGlmOkV4aWZPZmZzZXQAMjZTG6JlAAAAAElFTkSuQmCC" />
</svg>
