<?xml version="1.0" encoding="UTF-8" standalone="no"?>
<!DOCTYPE svg PUBLIC "-//W3C//DTD SVG 1.1//EN" "http://www.w3.org/Graphics/SVG/1.1/DTD/svg11.dtd">
<svg version="1.1" id="Layer_1" xmlns="http://www.w3.org/2000/svg" xmlns:xlink="http://www.w3.org/1999/xlink" x="0px" y="0px" width="16px" height="13px" viewBox="0 0 16 13" enable-background="new 0 0 16 13" xml:space="preserve">  <image id="image0" width="16" height="13" x="0" y="0"
    href="data:image/png;base64,iVBORw0KGgoAAAANSUhEUgAAABAAAAANCAMAAACXZR4WAAAABGdBTUEAALGPC/xhBQAAACBjSFJN
AAB6JgAAgIQAAPoAAACA6AAAdTAAAOpgAAA6mAAAF3CculE8AAAAPFBMVEUAAAA+T2r///84Umg1
T2ZNZmY1TmY5VWg5T2U2T2U7Tmw3WW81T2Y2TmY1T2c1T2Y1T2c2T2Y9Umb///9PH0eoAAAAE3RS
TlMAHQE7zgrNGzrMGhfik4uUlYUZzK3EZwAAAAFiS0dEAmYLfGQAAAAHdElNRQfjCh8ACAtBxc9k
AAAAOklEQVQI12NgAANGJlSamYUVlWZjR6E50GlOLrw0Nw8qzcDAy4dKYxPh50OlsYgwCfCh0ECW
oBCMBgDiKQKBZStPEQAAAERlWElmTU0AKgAAAAgAAYdpAAQAAAABAAAAGgAAAAAAA6ABAAMAAAAB
AAEAAKACAAQAAAABAAAAEKADAAQAAAABAAAADQAAAACsJSLBAAAAJXRFWHRkYXRlOmNyZWF0ZQAy
MDE5LTEwLTMxVDA3OjA4OjExLTA3OjAwA3B6fgAAACV0RVh0ZGF0ZTptb2RpZnkAMjAxOS0xMC0z
MVQwNzowODoxMS0wNzowMHItwsIAAAARdEVYdGV4aWY6Q29sb3JTcGFjZQAxD5sCSQAAABd0RVh0
ZXhpZjpFeGlmSW1hZ2VMZW5ndGgAMTMhw124AAAAFnRFWHRleGlmOkV4aWZJbWFnZVdpZHRoADE2
HFsUsgAAABJ0RVh0ZXhpZjpFeGlmT2Zmc2V0ADI2UxuiZQAAAABJRU5ErkJggg==" />
</svg>
